%YAML 1.1
%TAG !u! tag:unity3d.com,2011:
--- !u!114 &11400000
MonoBehaviour:
  m_ObjectHideFlags: 0
  m_CorrespondingSourceObject: {fileID: 0}
  m_PrefabInstance: {fileID: 0}
  m_PrefabAsset: {fileID: 0}
  m_GameObject: {fileID: 0}
  m_Enabled: 1
  m_EditorHideFlags: 0
  m_Script: {fileID: 11500000, guid: d1187c6f5a2aa584084ba67ab2162dbf, type: 3}
  m_Name: Grass
  m_EditorClassIdentifier: 
  PackageName: Grass
  VegetationInfoList:
  - VegetationItemID: a9b7b6e2-3575-44f6-8484-c3a688a1caea
    Name: DefaultGrassPatch
    VegetationType: 0
    PrefabType: 0
    VegetationRenderMode: 2
    EnableRuntimeSpawn: 1
    DisableShadows: 0
    VegetationPrefab: {fileID: 1055467479213912, guid: 413e569959b654f498ac8b3df0bf97b1, type: 3}
    VegetationTexture: {fileID: 0}
    VegetationGuid: 413e569959b654f498ac8b3df0bf97b1
    SampleDistance: 1.0469981
    Density: 1
    RandomizePosition: 1
    UseVegetationMasksOnStorage: 0
    UseSamplePointOffset: 0
    SamplePointMinOffset: 3
    SamplePointMaxOffset: 5
    Offset: {x: 0, y: 0, z: 0}
    RotationOffset: {x: 0, y: 0, z: 0}
    Rotation: 3
    MinUpOffset: 0
    MaxUpOffset: 0
    Bounds:
      m_Center: {x: -0.0071046352, y: 0.2, z: 1.0219895}
      m_Extent: {x: 0.6803982, y: 0.2, z: 0.6823417}
    ScaleMultiplier: {x: 1, y: 1, z: 1}
    RenderDistanceFactor: 1
    Seed: 66
    MinScale: 0.8
    MaxScale: 1.2
    YScale: 1
    ColliderType: 0
    ColliderRadius: 0.25
    ColliderHeight: 2
    ColliderOffset: {x: 0, y: 0, z: 0}
    ColliderSize: {x: 1, y: 1, z: 1}
    ColliderTrigger: 0
    ColliderMesh: {fileID: 0}
    ColliderUseForBake: 1
    ColliderDistanceFactor: 0.15
    ColliderTag: 
    ColliderConvex: 0
    NavMeshObstacleType: 0
    NavMeshObstacleCenter: {x: 0, y: 0, z: 0}
    NavMeshObstacleSize: {x: 1, y: 1, z: 1}
    NavMeshObstacleRadius: 0.5
    NavMeshObstacleHeight: 2
    NavMeshObstacleCarve: 1
    NavMeshArea: 0
    UseBillboards: 1
    BillboardQuality: 0
    BillboardTexture: {fileID: 0}
    BillboardNormalTexture: {fileID: 0}
    BillboardAoTexture: {fileID: 0}
    BillboardSourceLODLevel: 0
    BillboardColorSpace: -1
    BillboardBrightness: 1
    BillboardCutoff: 0.2
    BillboardTintColor: {r: 1, g: 1, b: 1, a: 1}
    BillboardAtlasBackgroundColor: {r: 0.3137255, g: 0.3137255, b: 0.078431375, a: 1}
    BillboardMipmapBias: -2
    BillboardWindSpeed: 1
    BillboardSmoothness: 0.2
    BillboardMetallic: 0.5
    BillboardSpecular: 0
    BillboardOcclusion: 0
    BillboardNormalStrength: 1
    BillboardRecalculateNormals: 0
    BillboardNormalBlendFactor: 1
    BillboardRenderMode: 1
    BillboardFlipBackNormals: 0
    UseHeightRule: 1
    MinHeight: 0
    MaxHeight: 1500
    UseAdvancedHeightRule: 0
    MaxCurveHeight: 500
    HeightRuleCurve:
      serializedVersion: 2
      m_Curve:
      - serializedVersion: 3
        time: 0
        value: 1
        inSlope: 0
        outSlope: 0
        tangentMode: 0
        weightedMode: 0
        inWeight: 0.33333334
        outWeight: 0.33333334
      - serializedVersion: 3
        time: 1
        value: 1
        inSlope: 0
        outSlope: 0
        tangentMode: 0
        weightedMode: 0
        inWeight: 0.33333334
        outWeight: 0.33333334
      m_PreInfinity: 2
      m_PostInfinity: 2
      m_RotationOrder: 4
    UseSteepnessRule: 1
    MinSteepness: 0
    MaxSteepness: 30
    UseAdvancedSteepnessRule: 0
    SteepnessRuleCurve:
      serializedVersion: 2
      m_Curve:
      - serializedVersion: 3
        time: 0
        value: 0
        inSlope: 2
        outSlope: 2
        tangentMode: 0
        weightedMode: 0
        inWeight: 0.33333334
        outWeight: 0.33333334
      - serializedVersion: 3
        time: 0.5
        value: 1
        inSlope: 2
        outSlope: 2
        tangentMode: 0
        weightedMode: 0
        inWeight: 0.33333334
        outWeight: 0.33333334
      m_PreInfinity: 2
      m_PostInfinity: 2
      m_RotationOrder: 4
    UseNoiseCutoff: 0
    NoiseCutoffValue: 0.5
    NoiseCutoffScale: 5
    NoiseCutoffInverse: 1
    NoiseCutoffOffset: {x: 0, y: 0}
    UseNoiseDensity: 1
    NoiseDensityScale: 5
    NoiseDensityInverse: 1
    NoiseDensityOffset: {x: 0, y: 0}
    UseNoiseScaleRule: 0
    NoiseScaleMinScale: 0.7
    NoiseScaleMaxScale: 1.3
    NoiseScaleScale: 5
    NoiseScaleInverse: 1
    NoiseScaleOffset: {x: 0, y: 0}
    UseBiomeEdgeScaleRule: 0
    BiomeEdgeScaleDistance: 10
    BiomeEdgeScaleMinScale: 0.3
    BiomeEdgeScaleMaxScale: 1
    BiomeEdgeScaleInverse: 0
    UseBiomeEdgeIncludeRule: 0
    BiomeEdgeIncludeDistance: 10
    BiomeEdgeIncludeInverse: 0
    UseConcaveLocationRule: 0
    ConcaveLocationInverse: 0
    ConcaveLoactionMinHeightDifference: 1
    ConcaveLoactionDistance: 3
    ConcaveLoactionAverage: 1
    UseTerrainTextureIncludeRules: 0
    TerrainTextureIncludeRuleList: []
    UseTerrainTextureExcludeRules: 0
    TerrainTextureExcludeRuleList: []
    UseTextureMaskIncludeRules: 0
    TextureMaskIncludeRuleList: []
    UseTextureMaskExcludeRules: 0
    TextureMaskExcludeRuleList: []
    UseTextureMaskScaleRules: 0
    TextureMaskScaleRuleList: []
    UseTextureMaskDensityRules: 0
    TextureMaskDensityRuleList: []
    ShaderName: AwesomeTechnologies/Grass/Grass
    ShaderControllerSettings:
      ControlerPropertyList:
      - SerializedControlerPropertyType: 6
        PropertyName: Foliage settings
        PropertyDescription: Foliage settings
        PropertyInfo: 
        IntValue: 0
        IntMinValue: 0
        IntMaxValue: 0
        FloatValue: 0
        FloatMinValue: 0
        FloatMaxValue: 0
        ColorValue: {r: 0, g: 0, b: 0, a: 0}
        BoolValue: 0
        TextureValue: {fileID: 0}
        StringList: []
      - SerializedControlerPropertyType: 3
        PropertyName: TintColor1
        PropertyDescription: Dry color tint
        PropertyInfo: 
        IntValue: 0
        IntMinValue: 0
        IntMaxValue: 0
        FloatValue: 0
        FloatMinValue: 0
        FloatMaxValue: 0
        ColorValue: {r: 1, g: 1, b: 1, a: 1}
        BoolValue: 0
        TextureValue: {fileID: 0}
        StringList: []
      - SerializedControlerPropertyType: 3
        PropertyName: TintColor2
        PropertyDescription: Healthy color tint
        PropertyInfo: 
        IntValue: 0
        IntMinValue: 0
        IntMaxValue: 0
        FloatValue: 0
        FloatMinValue: 0
        FloatMaxValue: 0
        ColorValue: {r: 1, g: 1, b: 1, a: 1}
        BoolValue: 0
        TextureValue: {fileID: 0}
        StringList: []
      - SerializedControlerPropertyType: 1
        PropertyName: TintAreaScale
        PropertyDescription: Tint area scale
        PropertyInfo: 
        IntValue: 0
        IntMinValue: 0
        IntMaxValue: 0
        FloatValue: 30
        FloatMinValue: 10
        FloatMaxValue: 150
        ColorValue: {r: 0, g: 0, b: 0, a: 0}
        BoolValue: 0
        TextureValue: {fileID: 0}
        StringList: []
      - SerializedControlerPropertyType: 1
        PropertyName: RandomDarkening
        PropertyDescription: Random darkening
        PropertyInfo: 
        IntValue: 0
        IntMinValue: 0
        IntMaxValue: 0
        FloatValue: 0.31
        FloatMinValue: 0
        FloatMaxValue: 1
        ColorValue: {r: 0, g: 0, b: 0, a: 0}
        BoolValue: 0
        TextureValue: {fileID: 0}
        StringList: []
      - SerializedControlerPropertyType: 1
        PropertyName: RootAmbient
        PropertyDescription: Root ambient
        PropertyInfo: 
        IntValue: 0
        IntMinValue: 0
        IntMaxValue: 0
        FloatValue: 0.63
        FloatMinValue: 0
        FloatMaxValue: 1
        ColorValue: {r: 0, g: 0, b: 0, a: 0}
        BoolValue: 0
        TextureValue: {fileID: 0}
        StringList: []
      - SerializedControlerPropertyType: 1
        PropertyName: AlphaCutoff
        PropertyDescription: Alpha cutoff
        PropertyInfo: 
        IntValue: 0
        IntMinValue: 0
        IntMaxValue: 0
        FloatValue: 0.1
        FloatMinValue: 0
        FloatMaxValue: 1
        ColorValue: {r: 0, g: 0, b: 0, a: 0}
        BoolValue: 0
        TextureValue: {fileID: 0}
        StringList: []
      Heading: Vegetation Studio Grass
      Description: 
      SupportsInstantIndirect: 1
      LODFadeCrossfade: 0
      LODFadePercentage: 0
      SampleWind: 0
      UpdateWind: 0
      DynamicHUE: 0
      BillboardSnow: 0
      BillboardHDWind: 0
      OverrideBillboardAtlasShader: 
      OverrideBillboardAtlasNormalShader: 
      BillboardRenderMode: 1
    UseTerrainSourceIncludeRule: 0
    TerrainSourceIncludeRule:
      UseTerrainSourceID1: 0
      UseTerrainSourceID2: 0
      UseTerrainSourceID3: 0
      UseTerrainSourceID4: 0
      UseTerrainSourceID5: 0
      UseTerrainSourceID6: 0
      UseTerrainSourceID7: 0
      UseTerrainSourceID8: 0
    UseTerrainSourceExcludeRule: 0
    TerrainSourceExcludeRule:
      UseTerrainSourceID1: 0
      UseTerrainSourceID2: 0
      UseTerrainSourceID3: 0
      UseTerrainSourceID4: 0
      UseTerrainSourceID5: 0
      UseTerrainSourceID6: 0
      UseTerrainSourceID7: 0
      UseTerrainSourceID8: 0
    DisableLOD: 0
    LODFactor: 1
    UseDistanceFalloff: 0
    DistanceFalloffStartDistance: 0.4
    UseVegetationMask: 0
    VegetationTypeIndex: 1
    RuntimePrefabRuleList: []
  - VegetationItemID: 330fd392-a4a5-41d4-8f2d-d3619102526c
    Name: Coconut_Palm_Tree07
    VegetationType: 2
    PrefabType: 0
    VegetationRenderMode: 0
    EnableRuntimeSpawn: 1
    DisableShadows: 0
    VegetationPrefab: {fileID: 100000, guid: cd04206a30c78e84fbc449686e6b254c, type: 3}
    VegetationTexture: {fileID: 0}
    VegetationGuid: cd04206a30c78e84fbc449686e6b254c
    SampleDistance: 5
    Density: 0.18
    RandomizePosition: 1
    UseVegetationMasksOnStorage: 0
    UseSamplePointOffset: 0
    SamplePointMinOffset: 3
    SamplePointMaxOffset: 5
    Offset: {x: 0, y: 0, z: 0}
    RotationOffset: {x: 0, y: 0, z: 0}
    Rotation: 0
    MinUpOffset: 0
    MaxUpOffset: 0
    Bounds:
      m_Center: {x: 163.94249, y: -26.746159, z: 89.45292}
      m_Extent: {x: 8.053024, y: 12.67572, z: 8.105492}
    ScaleMultiplier: {x: 1, y: 1, z: 1}
    RenderDistanceFactor: 0.43
    Seed: 27
    MinScale: 0.8
    MaxScale: 1.2
    YScale: 1
    ColliderType: 0
    ColliderRadius: 0.25
    ColliderHeight: 2
    ColliderOffset: {x: 0, y: 0, z: 0}
    ColliderSize: {x: 1, y: 1, z: 1}
    ColliderTrigger: 0
    ColliderMesh: {fileID: 0}
    ColliderUseForBake: 1
    ColliderDistanceFactor: 0.15
    ColliderTag: 
    ColliderConvex: 0
    NavMeshObstacleType: 0
    NavMeshObstacleCenter: {x: 0, y: 0, z: 0}
    NavMeshObstacleSize: {x: 1, y: 1, z: 1}
    NavMeshObstacleRadius: 0.5
    NavMeshObstacleHeight: 2
    NavMeshObstacleCarve: 1
    NavMeshArea: 0
    UseBillboards: 1
    BillboardQuality: 0
    BillboardTexture: {fileID: 2800000, guid: 506d0b695f3dfc54f91ee6b52690465f, type: 3}
    BillboardNormalTexture: {fileID: 2800000, guid: f601129923ffc1a4ea317bf27a3488ec, type: 3}
    BillboardAoTexture: {fileID: 0}
    BillboardSourceLODLevel: 0
    BillboardColorSpace: 0
    BillboardBrightness: 1
    BillboardCutoff: 0.2
    BillboardTintColor: {r: 1, g: 1, b: 1, a: 1}
    BillboardAtlasBackgroundColor: {r: 0.3137255, g: 0.3137255, b: 0.078431375, a: 1}
    BillboardMipmapBias: -2
    BillboardWindSpeed: 1
    BillboardSmoothness: 0.2
    BillboardMetallic: 0.5
    BillboardSpecular: 0
    BillboardOcclusion: 0
    BillboardNormalStrength: 1
    BillboardRecalculateNormals: 0
    BillboardNormalBlendFactor: 1
    BillboardRenderMode: 0
    BillboardFlipBackNormals: 0
    UseHeightRule: 1
    MinHeight: 0
    MaxHeight: 1500
    UseAdvancedHeightRule: 0
    MaxCurveHeight: 500
    HeightRuleCurve:
      serializedVersion: 2
      m_Curve:
      - serializedVersion: 3
        time: 0
        value: 1
        inSlope: 0
        outSlope: 0
        tangentMode: 0
        weightedMode: 0
        inWeight: 0.33333334
        outWeight: 0.33333334
      - serializedVersion: 3
        time: 1
        value: 1
        inSlope: 0
        outSlope: 0
        tangentMode: 0
        weightedMode: 0
        inWeight: 0.33333334
        outWeight: 0.33333334
      m_PreInfinity: 2
      m_PostInfinity: 2
      m_RotationOrder: 4
    UseSteepnessRule: 1
    MinSteepness: 0
    MaxSteepness: 30
    UseAdvancedSteepnessRule: 0
    SteepnessRuleCurve:
      serializedVersion: 2
      m_Curve:
      - serializedVersion: 3
        time: 0
        value: 0
        inSlope: 2
        outSlope: 2
        tangentMode: 0
        weightedMode: 0
        inWeight: 0.33333334
        outWeight: 0.33333334
      - serializedVersion: 3
        time: 0.5
        value: 1
        inSlope: 2
        outSlope: 2
        tangentMode: 0
        weightedMode: 0
        inWeight: 0.33333334
        outWeight: 0.33333334
      m_PreInfinity: 2
      m_PostInfinity: 2
      m_RotationOrder: 4
    UseNoiseCutoff: 0
    NoiseCutoffValue: 0.5
    NoiseCutoffScale: 5
    NoiseCutoffInverse: 0
    NoiseCutoffOffset: {x: 0, y: 0}
    UseNoiseDensity: 1
    NoiseDensityScale: 5
    NoiseDensityInverse: 0
    NoiseDensityOffset: {x: 0, y: 0}
    UseNoiseScaleRule: 0
    NoiseScaleMinScale: 0.7
    NoiseScaleMaxScale: 1.3
    NoiseScaleScale: 5
    NoiseScaleInverse: 0
    NoiseScaleOffset: {x: 0, y: 0}
    UseBiomeEdgeScaleRule: 0
    BiomeEdgeScaleDistance: 10
    BiomeEdgeScaleMinScale: 0.3
    BiomeEdgeScaleMaxScale: 1
    BiomeEdgeScaleInverse: 0
    UseBiomeEdgeIncludeRule: 0
    BiomeEdgeIncludeDistance: 10
    BiomeEdgeIncludeInverse: 0
    UseConcaveLocationRule: 0
    ConcaveLocationInverse: 0
    ConcaveLoactionMinHeightDifference: 1
    ConcaveLoactionDistance: 3
    ConcaveLoactionAverage: 1
    UseTerrainTextureIncludeRules: 0
    TerrainTextureIncludeRuleList: []
    UseTerrainTextureExcludeRules: 0
    TerrainTextureExcludeRuleList: []
    UseTextureMaskIncludeRules: 0
    TextureMaskIncludeRuleList: []
    UseTextureMaskExcludeRules: 0
    TextureMaskExcludeRuleList: []
    UseTextureMaskScaleRules: 0
    TextureMaskScaleRuleList: []
    UseTextureMaskDensityRules: 0
    TextureMaskDensityRuleList: []
    ShaderName: Hidden/Nature/Tree Creator Bark Optimized
    ShaderControllerSettings:
      ControlerPropertyList: []
      Heading: Tree Creator
      Description: 
      SupportsInstantIndirect: 0
      LODFadeCrossfade: 0
      LODFadePercentage: 0
      SampleWind: 0
      UpdateWind: 1
      DynamicHUE: 0
      BillboardSnow: 0
      BillboardHDWind: 0
      OverrideBillboardAtlasShader: AwesomeTechnologies/Billboards/RenderDiffuseAtlasNormal
      OverrideBillboardAtlasNormalShader: AwesomeTechnologies/Billboards/RenderNormalsAtlas
      BillboardRenderMode: 0
    UseTerrainSourceIncludeRule: 0
    TerrainSourceIncludeRule:
      UseTerrainSourceID1: 0
      UseTerrainSourceID2: 0
      UseTerrainSourceID3: 0
      UseTerrainSourceID4: 0
      UseTerrainSourceID5: 0
      UseTerrainSourceID6: 0
      UseTerrainSourceID7: 0
      UseTerrainSourceID8: 0
    UseTerrainSourceExcludeRule: 0
    TerrainSourceExcludeRule:
      UseTerrainSourceID1: 0
      UseTerrainSourceID2: 0
      UseTerrainSourceID3: 0
      UseTerrainSourceID4: 0
      UseTerrainSourceID5: 0
      UseTerrainSourceID6: 0
      UseTerrainSourceID7: 0
      UseTerrainSourceID8: 0
    DisableLOD: 0
    LODFactor: 1
    UseDistanceFalloff: 0
    DistanceFalloffStartDistance: 0.4
    UseVegetationMask: 0
    VegetationTypeIndex: 1
    RuntimePrefabRuleList: []
  TerrainTextureSettingsList:
  - TextureHeightCurve:
      serializedVersion: 2
      m_Curve:
      - serializedVersion: 3
        time: 0
        value: 1
        inSlope: 0
        outSlope: 0
        tangentMode: 0
        weightedMode: 0
        inWeight: 0
        outWeight: 0
      - serializedVersion: 3
        time: 0.00952381
        value: 0
        inSlope: 0
        outSlope: 0
        tangentMode: 0
        weightedMode: 0
        inWeight: 0
        outWeight: 0
      m_PreInfinity: 2
      m_PostInfinity: 2
      m_RotationOrder: 4
    TextureSteepnessCurve:
      serializedVersion: 2
      m_Curve:
      - serializedVersion: 3
        time: 0
        value: 1
        inSlope: 0
        outSlope: 0
        tangentMode: 0
        weightedMode: 0
        inWeight: 0
        outWeight: 0
      - serializedVersion: 3
        time: 0.0952381
        value: 0
        inSlope: 0
        outSlope: 0
        tangentMode: 0
        weightedMode: 0
        inWeight: 0
        outWeight: 0
      m_PreInfinity: 2
      m_PostInfinity: 2
      m_RotationOrder: 4
    UseNoise: 0
    NoiseScale: 5
    TextureWeight: 1
    NoiseOffset: {x: 0, y: 0}
    InverseNoise: 0
    TextureLayer: 0
    Enabled: 1
    LockTexture: 0
    ConcaveEnable: 0
    ConvexEnable: 0
    ConcaveAverage: 1
    ConcaveMinHeightDifference: 5
    ConcaveDistance: 10
    ConcaveMode: 0
  - TextureHeightCurve:
      serializedVersion: 2
      m_Curve:
      - serializedVersion: 3
        time: 0
        value: 0
        inSlope: 0
        outSlope: 0
        tangentMode: 0
        weightedMode: 0
        inWeight: 0
        outWeight: 0
      - serializedVersion: 3
        time: 0.016666668
        value: 1
        inSlope: 0
        outSlope: 0
        tangentMode: 0
        weightedMode: 0
        inWeight: 0
        outWeight: 0
      - serializedVersion: 3
        time: 0.19675925
        value: 0
        inSlope: 0
        outSlope: 0
        tangentMode: 0
        weightedMode: 0
        inWeight: 0
        outWeight: 0
      m_PreInfinity: 2
      m_PostInfinity: 2
      m_RotationOrder: 4
    TextureSteepnessCurve:
      serializedVersion: 2
      m_Curve:
      - serializedVersion: 3
        time: 0.23095238
        value: 0.99
        inSlope: 0
        outSlope: 0
        tangentMode: 0
        weightedMode: 0
        inWeight: 0
        outWeight: 0
      - serializedVersion: 3
        time: 0.36941177
        value: 0
        inSlope: 0
        outSlope: 0
        tangentMode: 0
        weightedMode: 0
        inWeight: 0
        outWeight: 0
      m_PreInfinity: 2
      m_PostInfinity: 2
      m_RotationOrder: 4
    UseNoise: 0
    NoiseScale: 5
    TextureWeight: 1
    NoiseOffset: {x: 0, y: 0}
    InverseNoise: 0
    TextureLayer: 1
    Enabled: 1
    LockTexture: 0
    ConcaveEnable: 0
    ConvexEnable: 0
    ConcaveAverage: 1
    ConcaveMinHeightDifference: 5
    ConcaveDistance: 10
    ConcaveMode: 0
  - TextureHeightCurve:
      serializedVersion: 2
      m_Curve:
      - serializedVersion: 3
        time: 0
        value: 0
        inSlope: 0
        outSlope: 0
        tangentMode: 0
        weightedMode: 0
        inWeight: 0
        outWeight: 0
      - serializedVersion: 3
        time: 0.123809524
        value: 1
        inSlope: 0
        outSlope: 0
        tangentMode: 0
        weightedMode: 0
        inWeight: 0
        outWeight: 0
      m_PreInfinity: 2
      m_PostInfinity: 2
      m_RotationOrder: 4
    TextureSteepnessCurve:
      serializedVersion: 2
      m_Curve:
      - serializedVersion: 3
        time: 0
        value: 0
        inSlope: 0
        outSlope: 0
        tangentMode: 0
        weightedMode: 0
        inWeight: 0
        outWeight: 0
      - serializedVersion: 3
        time: 0.25925925
        value: 1
        inSlope: 0
        outSlope: 0
        tangentMode: 0
        weightedMode: 0
        inWeight: 0
        outWeight: 0
      m_PreInfinity: 2
      m_PostInfinity: 2
      m_RotationOrder: 4
    UseNoise: 0
    NoiseScale: 5
    TextureWeight: 1
    NoiseOffset: {x: 0, y: 0}
    InverseNoise: 0
    TextureLayer: 2
    Enabled: 1
    LockTexture: 0
    ConcaveEnable: 0
    ConvexEnable: 0
    ConcaveAverage: 1
    ConcaveMinHeightDifference: 5
    ConcaveDistance: 10
    ConcaveMode: 0
  - TextureHeightCurve:
      serializedVersion: 2
      m_Curve:
      - serializedVersion: 3
        time: 0.06481481
        value: 0
        inSlope: 0
        outSlope: 0
        tangentMode: 0
        weightedMode: 0
        inWeight: 0
        outWeight: 0
      - serializedVersion: 3
        time: 0.2685185
        value: 1
        inSlope: 0
        outSlope: 0
        tangentMode: 0
        weightedMode: 0
        inWeight: 0
        outWeight: 0
      m_PreInfinity: 2
      m_PostInfinity: 2
      m_RotationOrder: 4
    TextureSteepnessCurve:
      serializedVersion: 2
      m_Curve:
      - serializedVersion: 3
        time: 0.3148148
        value: 1
        inSlope: 0
        outSlope: 0
        tangentMode: 0
        weightedMode: 0
        inWeight: 0
        outWeight: 0
      - serializedVersion: 3
        time: 1
        value: 1
        inSlope: 0
        outSlope: 0
        tangentMode: 0
        weightedMode: 0
        inWeight: 0
        outWeight: 0
      m_PreInfinity: 2
      m_PostInfinity: 2
      m_RotationOrder: 4
    UseNoise: 0
    NoiseScale: 5
    TextureWeight: 1
    NoiseOffset: {x: 0, y: 0}
    InverseNoise: 0
    TextureLayer: 3
    Enabled: 1
    LockTexture: 0
    ConcaveEnable: 0
    ConvexEnable: 0
    ConcaveAverage: 1
    ConcaveMinHeightDifference: 5
    ConcaveDistance: 10
    ConcaveMode: 0
  - TextureHeightCurve:
      serializedVersion: 2
      m_Curve:
      - serializedVersion: 3
        time: 0
        value: 1
        inSlope: 0
        outSlope: 0
        tangentMode: 0
        weightedMode: 0
        inWeight: 0.33333334
        outWeight: 0.33333334
      - serializedVersion: 3
        time: 1
        value: 1
        inSlope: 0
        outSlope: 0
        tangentMode: 0
        weightedMode: 0
        inWeight: 0.33333334
        outWeight: 0.33333334
      m_PreInfinity: 2
      m_PostInfinity: 2
      m_RotationOrder: 4
    TextureSteepnessCurve:
      serializedVersion: 2
      m_Curve:
      - serializedVersion: 3
        time: 0
        value: 0.5
        inSlope: 0
        outSlope: 0
        tangentMode: 0
        weightedMode: 0
        inWeight: 0.33333334
        outWeight: 0.33333334
      - serializedVersion: 3
        time: 1
        value: 0.5
        inSlope: 0
        outSlope: 0
        tangentMode: 0
        weightedMode: 0
        inWeight: 0.33333334
        outWeight: 0.33333334
      m_PreInfinity: 2
      m_PostInfinity: 2
      m_RotationOrder: 4
    UseNoise: 0
    NoiseScale: 5
    TextureWeight: 1
    NoiseOffset: {x: 0, y: 0}
    InverseNoise: 0
    TextureLayer: 4
    Enabled: 0
    LockTexture: 0
    ConcaveEnable: 0
    ConvexEnable: 0
    ConcaveAverage: 1
    ConcaveMinHeightDifference: 5
    ConcaveDistance: 10
    ConcaveMode: 0
  - TextureHeightCurve:
      serializedVersion: 2
      m_Curve:
      - serializedVersion: 3
        time: 0
        value: 1
        inSlope: 0
        outSlope: 0
        tangentMode: 0
        weightedMode: 0
        inWeight: 0.33333334
        outWeight: 0.33333334
      - serializedVersion: 3
        time: 1
        value: 1
        inSlope: 0
        outSlope: 0
        tangentMode: 0
        weightedMode: 0
        inWeight: 0.33333334
        outWeight: 0.33333334
      m_PreInfinity: 2
      m_PostInfinity: 2
      m_RotationOrder: 4
    TextureSteepnessCurve:
      serializedVersion: 2
      m_Curve:
      - serializedVersion: 3
        time: 0
        value: 0.5
        inSlope: 0
        outSlope: 0
        tangentMode: 0
        weightedMode: 0
        inWeight: 0.33333334
        outWeight: 0.33333334
      - serializedVersion: 3
        time: 1
        value: 0.5
        inSlope: 0
        outSlope: 0
        tangentMode: 0
        weightedMode: 0
        inWeight: 0.33333334
        outWeight: 0.33333334
      m_PreInfinity: 2
      m_PostInfinity: 2
      m_RotationOrder: 4
    UseNoise: 0
    NoiseScale: 5
    TextureWeight: 1
    NoiseOffset: {x: 0, y: 0}
    InverseNoise: 0
    TextureLayer: 5
    Enabled: 0
    LockTexture: 0
    ConcaveEnable: 0
    ConvexEnable: 0
    ConcaveAverage: 1
    ConcaveMinHeightDifference: 5
    ConcaveDistance: 10
    ConcaveMode: 0
  - TextureHeightCurve:
      serializedVersion: 2
      m_Curve:
      - serializedVersion: 3
        time: 0
        value: 1
        inSlope: 0
        outSlope: 0
        tangentMode: 0
        weightedMode: 0
        inWeight: 0.33333334
        outWeight: 0.33333334
      - serializedVersion: 3
        time: 1
        value: 1
        inSlope: 0
        outSlope: 0
        tangentMode: 0
        weightedMode: 0
        inWeight: 0.33333334
        outWeight: 0.33333334
      m_PreInfinity: 2
      m_PostInfinity: 2
      m_RotationOrder: 4
    TextureSteepnessCurve:
      serializedVersion: 2
      m_Curve:
      - serializedVersion: 3
        time: 0
        value: 0.5
        inSlope: 0
        outSlope: 0
        tangentMode: 0
        weightedMode: 0
        inWeight: 0.33333334
        outWeight: 0.33333334
      - serializedVersion: 3
        time: 1
        value: 0.5
        inSlope: 0
        outSlope: 0
        tangentMode: 0
        weightedMode: 0
        inWeight: 0.33333334
        outWeight: 0.33333334
      m_PreInfinity: 2
      m_PostInfinity: 2
      m_RotationOrder: 4
    UseNoise: 0
    NoiseScale: 5
    TextureWeight: 1
    NoiseOffset: {x: 0, y: 0}
    InverseNoise: 0
    TextureLayer: 6
    Enabled: 0
    LockTexture: 0
    ConcaveEnable: 0
    ConvexEnable: 0
    ConcaveAverage: 1
    ConcaveMinHeightDifference: 5
    ConcaveDistance: 10
    ConcaveMode: 0
  - TextureHeightCurve:
      serializedVersion: 2
      m_Curve:
      - serializedVersion: 3
        time: 0
        value: 1
        inSlope: 0
        outSlope: 0
        tangentMode: 0
        weightedMode: 0
        inWeight: 0.33333334
        outWeight: 0.33333334
      - serializedVersion: 3
        time: 1
        value: 1
        inSlope: 0
        outSlope: 0
        tangentMode: 0
        weightedMode: 0
        inWeight: 0.33333334
        outWeight: 0.33333334
      m_PreInfinity: 2
      m_PostInfinity: 2
      m_RotationOrder: 4
    TextureSteepnessCurve:
      serializedVersion: 2
      m_Curve:
      - serializedVersion: 3
        time: 0
        value: 0.5
        inSlope: 0
        outSlope: 0
        tangentMode: 0
        weightedMode: 0
        inWeight: 0.33333334
        outWeight: 0.33333334
      - serializedVersion: 3
        time: 1
        value: 0.5
        inSlope: 0
        outSlope: 0
        tangentMode: 0
        weightedMode: 0
        inWeight: 0.33333334
        outWeight: 0.33333334
      m_PreInfinity: 2
      m_PostInfinity: 2
      m_RotationOrder: 4
    UseNoise: 0
    NoiseScale: 5
    TextureWeight: 1
    NoiseOffset: {x: 0, y: 0}
    InverseNoise: 0
    TextureLayer: 7
    Enabled: 0
    LockTexture: 0
    ConcaveEnable: 0
    ConvexEnable: 0
    ConcaveAverage: 1
    ConcaveMinHeightDifference: 5
    ConcaveDistance: 10
    ConcaveMode: 0
  TerrainTextureList:
  - Texture: {fileID: 2800000, guid: de5cc7c4241bb9c46a87ed39b7d10005, type: 3}
    TextureNormals: {fileID: 2800000, guid: 0ea4eb0de0c23b54abde5b15775d0d33, type: 3}
    TextureOcclusion: {fileID: 0}
    TextureHeightMap: {fileID: 0}
    TileSize: {x: 15, y: 15}
    Offset: {x: 0, y: 0}
    TerrainLayer: {fileID: 0}
  - Texture: {fileID: 2800000, guid: c0afc3db06067e74d927639bbc04ae4e, type: 3}
    TextureNormals: {fileID: 2800000, guid: d1a4190cdf5305443b36f6cd2498dd93, type: 3}
    TextureOcclusion: {fileID: 0}
    TextureHeightMap: {fileID: 0}
    TileSize: {x: 15, y: 15}
    Offset: {x: 0, y: 0}
    TerrainLayer: {fileID: 0}
  - Texture: {fileID: 2800000, guid: d2cebf7413e3c944281ee66dfe64149f, type: 3}
    TextureNormals: {fileID: 2800000, guid: 0c9bacd327357a94eb7663433cae1743, type: 3}
    TextureOcclusion: {fileID: 0}
    TextureHeightMap: {fileID: 0}
    TileSize: {x: 15, y: 15}
    Offset: {x: 0, y: 0}
    TerrainLayer: {fileID: 0}
  - Texture: {fileID: 2800000, guid: 46f048d7d81f5864fa2a8d7fb353e13c, type: 3}
    TextureNormals: {fileID: 2800000, guid: 755731fe0fa883748860f1c58877ab0f, type: 3}
    TextureOcclusion: {fileID: 0}
    TextureHeightMap: {fileID: 0}
    TileSize: {x: 15, y: 15}
    Offset: {x: 0, y: 0}
    TerrainLayer: {fileID: 0}
  - Texture: {fileID: 2800000, guid: f5d1de47f0f760544a5596ceb8cc895f, type: 3}
    TextureNormals: {fileID: 2800000, guid: af579c7a89d15d24eb8c925a43a236cf, type: 3}
    TextureOcclusion: {fileID: 0}
    TextureHeightMap: {fileID: 0}
    TileSize: {x: 15, y: 15}
    Offset: {x: 0, y: 0}
    TerrainLayer: {fileID: 0}
  - Texture: {fileID: 2800000, guid: 9094edcf722b9e945a30556b7b3c2267, type: 3}
    TextureNormals: {fileID: 2800000, guid: 76009dac73d240246aa8d95e1737bc1d, type: 3}
    TextureOcclusion: {fileID: 0}
    TextureHeightMap: {fileID: 0}
    TileSize: {x: 15, y: 15}
    Offset: {x: 0, y: 0}
    TerrainLayer: {fileID: 0}
  - Texture: {fileID: 2800000, guid: 76a07bcaabfcbc540827c83b89b5d443, type: 3}
    TextureNormals: {fileID: 2800000, guid: fa98c104902c6a94d9bcf97cf14c6ec9, type: 3}
    TextureOcclusion: {fileID: 0}
    TextureHeightMap: {fileID: 0}
    TileSize: {x: 15, y: 15}
    Offset: {x: 0, y: 0}
    TerrainLayer: {fileID: 0}
  - Texture: {fileID: 2800000, guid: 12ff3c37d59e28240a8f4643c3ead3d3, type: 3}
    TextureNormals: {fileID: 2800000, guid: e5895469fa6440e4a876bf0672599e59, type: 3}
    TextureOcclusion: {fileID: 0}
    TextureHeightMap: {fileID: 0}
    TileSize: {x: 15, y: 15}
    Offset: {x: 0, y: 0}
    TerrainLayer: {fileID: 0}
  TextureMaskGroupList: []
  TerrainTextureCount: 8
  BiomeType: 8
  BiomeSortOrder: 1
  GenerateBiomeSplamap: 1
